// Jest Snapshot v1, https://goo.gl/fbAQLP

exports[`rejects 1`] = `"SQLITE_ERROR: near \\"invalid\\": syntax error"`;

exports[`sql 1`] = `
Array [
  Object {
    "col_1": "row.1.1",
    "col_2": "row.1.2",
  },
  Object {
    "col_1": "row.2.1",
    "col_2": "row.2.2",
  },
]
`;
